<svg width="55" height="72" viewBox="0 0 55 72" fill="none" xmlns="http://www.w3.org/2000/svg">
<path d="M34.375 0H6.875C3.09375 0 0.0343758 3.22875 0.0343758 7.175L0 64.575C0 68.5213 3.05937 71.75 6.84062 71.75H48.125C51.9063 71.75 55 68.5213 55 64.575V21.525L34.375 0ZM48.125 64.575H6.875V7.175H30.9375V25.1125H48.125V64.575ZM13.75 46.6734L18.5969 51.7318L24.0625 46.0635V60.9875H30.9375V46.0635L36.4031 51.7676L41.25 46.6734L27.5344 32.2875L13.75 46.6734Z" fill="#6D6D6D"/>
</svg>
